{
  "title": "",
  "content": {
    "hider": {
      "slot": 1,
      "item": {
        "id": "${?${PlayersShowing}=All:(lime_dye)else(${?${PlayersShowing}=OnlyFriends:(purple_dye)else(light_gray_dye)})}",
        "durability": 0,
        "amount": 1,
        "name": "&b» ${?${PlayersShowing}=All:(&aShow &cOnly Friends)else(${?${PlayersShowing}=OnlyFriends:(&cHide Players)else(&aShow All Players)})}",
        "lore": [
          "&7Showing currently",
          "${?${PlayersShowing}=All:(&aAll Players)else(${?${PlayersShowing}=OnlyFriends:(&dOnly Friends)else(&7No Other Players)})}"
        ],
        "enchantments": []
      },
      "clickaction": {
        "left": null,
        "right": [
          "ShowPlayers:${?${PlayersShowing}=All:(OnlyFriends)else(${?${PlayersShowing}=OnlyFriends:(None)else(All)})}",
          "Hotbar:~reload"
        ]
      }
    },
    "navigator": {
      "slot": 4,
      "item": {
        "id": "compass",
        "durability": 0,
        "amount": 1,
        "name": "&b» &9Navigator",
        "lore": [],
        "enchantments": []
      },
      "clickaction": {
        "left": null,
        "right": [
          "Menu:navigation"
        ]
      }
    },
    "lobbyswitcher": {
      "slot": 7,
      "item": {
        "id": "nether_star",
        "durability": 0,
        "amount": 1,
        "name": "&b» &9Lobby Switcher",
        "lore": [],
        "enchantments": []
      },
      "clickaction": {
        "left": null,
        "right": [
          "Menu:lobbies"
        ]
      }
    }
  }
}